{
  "type": "service_account",
  "project_id": "favorable-logic-159321",
  "private_key_id": "30cfbf2503db3bdc4efbe9c8c271894cf13d6ef2",
  "private_key": "-----BEGIN PRIVATE KEY-----\nMIIEvgIBADANBgkqhkiG9w0BAQEFAASCBKgwggSkAgEAAoIBAQDYk3Z2fp7ZwuWO\npVVTM/nR2dOOcisF9bYKk0ePGDX+d8ucs8GHaK2P0bZ6VwS7c3bNyc1WxBOcGs4M\nXEiIwDh1+OUy1dkaDXksT7MOv1HvzbXMrjMAhqNk84Wxs6zog9WswxRFBfw/tpQh\n7AQBwBNfcD4g1/RgZoG073d5OXNg2le9zC/pBAM5t+Ae6+BUEnviYd83JiewyH6f\nFPSFULNfASJksTqTDN01tQez5tuLai+Dxjic4tX+03wFzbbj2KmVSLxOLbnhpIZK\n3BTJhforXPeookzth5WKnpjBa6IT0YF5+TSA4HjdK0LpQQfjYoogeF3SfXqbG9uU\nSh1/YqZbAgMBAAECggEACtirxKMdF9Z7wlPuZ4SBXOygpzrO2SAP9gyf4f86Plxy\nh+O1bATROGmDeYdfzHbWZYJXSc1NFsgoNz9B6giyay9uucfdn8E6pyj1/zrpWBir\nI606ZFWEhlrvKvykIArw3xOasXBAzKdmA3g7T852Sep9pLhxW93rs2DmJgiQtNzI\nQAi8yqOQIMmFZz7FAE8KJcQWzLprRkgEul56+mlWKGPFr0d9CTsWXmwRXJp+ghXo\nRMDDPmSdDwFiC4MnLzMSO3UB831hImheqa/kV33YnVdM7Zx6wqLb4Sw/JfjrGkS0\n+oWlXGdpRneBSNxcYjWbWwrgpBsu+z9so7cZapesUQKBgQDsESWU34kSprWXUEre\n1ZzQRol2f8WEKwjpCVl2LK6CmeS0XApK5Yft+EdqPBCw4dkseVt8l1djSxNXGgfL\nkmJgFvYmM9pL/lHR+5fViICPDJED3Rq/Jbj0m1ZOdMAV/LzHuG6IYbAdJVbQMy8T\n5fYkZllP7ZgKxpiii1oVKzr+8QKBgQDq3P9ABhyYH8GfcPrQPuAt082Mn0+v6IxM\n5nTQXmgkY8aj2Q9tj7BOZVd7EipXzbY3Br+l0b1baSNDBemqZaFiydF4EvfnHME1\nPBMyk1UmO+9u3lwr3zXEC0KzjX5eM0C5CUNxqLPs+LOkxRlopHE6ZqIP9lr1eIWs\n7Y4SGjjSCwKBgQC82fbTw4R4HFAXrg9Hd2KNKHDeENelpXvqWiVsqdAuAQl61EsT\noc59rOsM7OJ5byR7NNbgtH4fnDbrrpJf5Eq5DoV7CG5x7xHrx7evBxW52tbEXYUB\nOB9f6ElCWJo2vMsVh9E9X9Exb+akht35sDWa5xo6HBxPOpNvLcYyOzRmMQKBgFTX\n7xG243+FAVJS4xh1jlCf0gJ5zrSyYnSpUAux/xceQDUShcNDhCJd88NO5aMAelHY\ni0UgxrIOAiIFMctPmYRxec1RtOJ1fcp4YEsF9F2yiyVXCJ8ErIycsMTiWYM4Kqpt\nkUKu+giiM2tTlIE73neFegggK+2/UzMMQiWB+YLPAoGBAMNUoFSIvs48NV5EzHx5\nSU4aHU32qDhDPBWpomh86FO0wVC6Ss5GpDz2C/0JHHZR5tWUj/z3XlprIX9wBMXB\nQRPMk6wtxbSKdFf5/n13YNGvaUsJYxBTEiVUh0LDI41b2JEi4HkonfLe/Uufl7Et\nmM3w3h5R7Vd9Ciy0ivZdgzby\n-----END PRIVATE KEY-----\n",
  "client_email": "35050527029-compute@developer.gserviceaccount.com",
  "client_id": "115376281798525948806",
  "auth_uri": "https://accounts.google.com/o/oauth2/auth",
  "token_uri": "https://oauth2.googleapis.com/token",
  "auth_provider_x509_cert_url": "https://www.googleapis.com/oauth2/v1/certs",
  "client_x509_cert_url": "https://www.googleapis.com/robot/v1/metadata/x509/35050527029-compute%40developer.gserviceaccount.com"
}
